%YAML 1.1
%TAG !u! tag:unity3d.com,2011:
--- !u!251 &1263867458
PlatformEffector2D:
  m_ObjectHideFlags: 0
  m_CorrespondingSourceObject: {fileID: 0}
  m_PrefabInstance: {fileID: 0}
  m_PrefabAsset: {fileID: 0}
  m_GameObject: {fileID: 3582704147049735222}
  m_Enabled: 1
  m_UseColliderMask: 1
  m_ColliderMask:
    serializedVersion: 2
    m_Bits: 1
  m_RotationalOffset: 0
  m_UseOneWay: 1
  m_UseOneWayGrouping: 0
  m_SurfaceArc: 160
  m_UseSideFriction: 0
  m_UseSideBounce: 0
  m_SideArc: 1
--- !u!114 &1263867457
MonoBehaviour:
  m_ObjectHideFlags: 0
  m_CorrespondingSourceObject: {fileID: 0}
  m_PrefabInstance: {fileID: 0}
  m_PrefabAsset: {fileID: 0}
  m_GameObject: {fileID: 3582704147049735222}
  m_Enabled: 1
  m_EditorHideFlags: 0
  m_Script: {fileID: 11500000, guid: 3e153394323411f4f99b14bcdefc3451, type: 3}
  m_Name: 
  m_EditorClassIdentifier: 
--- !u!1001 &4067654913211689210
PrefabInstance:
  m_ObjectHideFlags: 0
  serializedVersion: 2
  m_Modification:
    m_TransformParent: {fileID: 0}
    m_Modifications:
    - target: {fileID: 705768710164253900, guid: ea93581601a32234ca1707e1677bb773,
        type: 3}
      propertyPath: m_Name
      value: Collider Trash
      objectReference: {fileID: 0}
    - target: {fileID: 705768710164253900, guid: ea93581601a32234ca1707e1677bb773,
        type: 3}
      propertyPath: m_Layer
      value: 8
      objectReference: {fileID: 0}
    - target: {fileID: 705768710377676875, guid: ea93581601a32234ca1707e1677bb773,
        type: 3}
      propertyPath: m_LocalPosition.x
      value: 497.36
      objectReference: {fileID: 0}
    - target: {fileID: 705768710377676875, guid: ea93581601a32234ca1707e1677bb773,
        type: 3}
      propertyPath: m_LocalPosition.y
      value: -0.57
      objectReference: {fileID: 0}
    - target: {fileID: 705768710377676875, guid: ea93581601a32234ca1707e1677bb773,
        type: 3}
      propertyPath: m_LocalPosition.z
      value: 0
      objectReference: {fileID: 0}
    - target: {fileID: 705768710377676875, guid: ea93581601a32234ca1707e1677bb773,
        type: 3}
      propertyPath: m_LocalRotation.x
      value: -0
      objectReference: {fileID: 0}
    - target: {fileID: 705768710377676875, guid: ea93581601a32234ca1707e1677bb773,
        type: 3}
      propertyPath: m_LocalRotation.y
      value: -0
      objectReference: {fileID: 0}
    - target: {fileID: 705768710377676875, guid: ea93581601a32234ca1707e1677bb773,
        type: 3}
      propertyPath: m_LocalRotation.z
      value: -0
      objectReference: {fileID: 0}
    - target: {fileID: 705768710377676875, guid: ea93581601a32234ca1707e1677bb773,
        type: 3}
      propertyPath: m_LocalRotation.w
      value: 1
      objectReference: {fileID: 0}
    - target: {fileID: 705768710377676875, guid: ea93581601a32234ca1707e1677bb773,
        type: 3}
      propertyPath: m_RootOrder
      value: 0
      objectReference: {fileID: 0}
    - target: {fileID: 705768710377676875, guid: ea93581601a32234ca1707e1677bb773,
        type: 3}
      propertyPath: m_LocalEulerAnglesHint.x
      value: 0
      objectReference: {fileID: 0}
    - target: {fileID: 705768710377676875, guid: ea93581601a32234ca1707e1677bb773,
        type: 3}
      propertyPath: m_LocalEulerAnglesHint.y
      value: 0
      objectReference: {fileID: 0}
    - target: {fileID: 705768710377676875, guid: ea93581601a32234ca1707e1677bb773,
        type: 3}
      propertyPath: m_LocalEulerAnglesHint.z
      value: 0
      objectReference: {fileID: 0}
    - target: {fileID: 705768710164253901, guid: ea93581601a32234ca1707e1677bb773,
        type: 3}
      propertyPath: m_Offset.x
      value: 2.2781677
      objectReference: {fileID: 0}
    - target: {fileID: 705768710164253901, guid: ea93581601a32234ca1707e1677bb773,
        type: 3}
      propertyPath: m_Size.x
      value: 2.8782349
      objectReference: {fileID: 0}
    - target: {fileID: 705768710164253901, guid: ea93581601a32234ca1707e1677bb773,
        type: 3}
      propertyPath: m_Offset.y
      value: 0.30304205
      objectReference: {fileID: 0}
    - target: {fileID: 705768710164253901, guid: ea93581601a32234ca1707e1677bb773,
        type: 3}
      propertyPath: m_Size.y
      value: 0.1286957
      objectReference: {fileID: 0}
    - target: {fileID: 705768710164253901, guid: ea93581601a32234ca1707e1677bb773,
        type: 3}
      propertyPath: m_UsedByEffector
      value: 1
      objectReference: {fileID: 0}
    - target: {fileID: 705768710164253901, guid: ea93581601a32234ca1707e1677bb773,
        type: 3}
      propertyPath: m_UsedByComposite
      value: 0
      objectReference: {fileID: 0}
    - target: {fileID: 705768710164253901, guid: ea93581601a32234ca1707e1677bb773,
        type: 3}
      propertyPath: m_IsTrigger
      value: 0
      objectReference: {fileID: 0}
    m_RemovedComponents: []
  m_SourcePrefab: {fileID: 100100000, guid: ea93581601a32234ca1707e1677bb773, type: 3}
--- !u!1 &3582704147049735222 stripped
GameObject:
  m_CorrespondingSourceObject: {fileID: 705768710164253900, guid: ea93581601a32234ca1707e1677bb773,
    type: 3}
  m_PrefabInstance: {fileID: 4067654913211689210}
  m_PrefabAsset: {fileID: 0}
